,LEVEL,EXP,HP,HPRE,ATK,DEF,ATS,MAXMER
1,1,100,50,1,5,0.9,1,1
2,2,200,60,1,6,0.88,1,2
3,3,400,70,1,7,0.86,1,2
4,4,800,80,1,8,0.84,2,3
5,5,1600,90,1,9,0.82,2,3
6,6,3200,100,2,10,0.8,2,3
7,7,6400,110,2,11,0.76,2,3
8,8,8000,120,2,12,0.72,3,4
9,9,10000,130,2,13,0.68,3,4
10,10,0,140,2,14,0.62,3,4
